﻿{
	"no": 99999,
	"name": "testoceanpearl",
	"info": {
		"reelLength": 5,
		"reelHeight": 4
	},
	"scatterBonus": [
		{
			"multiplyChip": 1,
			"isMoreBonus": 0
		},
		{
			"multiplyChip": 1,
			"isMoreBonus": 0
		},
		{
			"multiplyChip": 5,
			"isMoreBonus": 0
		},
		{
			"multiplyChip": 10,
			"isMoreBonus": 1
		},
		{
			"multiplyChip": 20,
			"isMoreBonus": 1
		}
	],
	"scatterTrigger": {
		"freeSpin": [
			5,
			5,
			5,
			6,
			6,
			6,
			7,
			7,
			7,
			8,
			8,
			8
		],
		"multipleWild": [
			5,
			4,
			4,
			3,
			3,
			3,
			3,
			2,
			2,
			2,
			2,
			2
		]
	},
	"slotSymbol": [
		{
			"id": "W1",
			"index": 8,
			"pay": [
				0,
				0,
				16,
				48,
				-1
			],
			"type": "jackpot"
		},
		{
			"id": "B1",
			"index": 9,
			"pay": [
				0,
				0,
				0,
				0,
				0
			],
			"type": "scatter"
		},
		{
			"id": "D1",
			"index": 4,
			"pay": [
				0,
				0,
				8,
				24,
				80
			],
			"type": "normal"
		},
		{
			"id": "O1",
			"index": 5,
			"pay": [
				0,
				0,
				7,
				21,
				70
			],
			"type": "normal"
		},
		{
			"id": "T1",
			"index": 6,
			"pay": [
				0,
				0,
				6,
				18,
				60
			],
			"type": "normal"
		},
		{
			"id": "F1",
			"index": 7,
			"pay": [
				0,
				0,
				5,
				15,
				50
			],
			"type": "normal"
		},
		{
			"id": "S2",
			"index": 12,
			"pay": [
				0,
				0,
				4,
				12,
				40
			],
			"type": "normal"
		},
		{
			"id": "M",
			"index": 2,
			"pay": [
				0,
				0,
				3,
				9,
				30
			],
			"type": "normal"
		},
		{
			"id": "S3",
			"index": 10,
			"pay": [
				0,
				0,
				2,
				6,
				20
			],
			"type": "normal"
		},
		{
			"id": "S4",
			"index": 11,
			"pay": [
				0,
				0,
				1,
				3,
				10
			],
			"type": "normal"
		},
		{
			"id": "W2",
			"index": 3,
			"pay": [
				0,
				0,
				16,
				48,
				160
			],
			"type": "wild"
		}
	],
	"payLines": [
		{
			"index": 0,
			"reel1": [
				0,
				0
			],
			"reel2": [
				1,
				0
			],
			"reel3": [
				2,
				0
			],
			"reel4": [
				3,
				0
			],
			"reel5": [
				4,
				0
			]
		},
		{
			"index": 1,
			"reel1": [
				0,
				1
			],
			"reel2": [
				1,
				1
			],
			"reel3": [
				2,
				1
			],
			"reel4": [
				3,
				1
			],
			"reel5": [
				4,
				1
			]
		},
		{
			"index": 2,
			"reel1": [
				0,
				2
			],
			"reel2": [
				1,
				2
			],
			"reel3": [
				2,
				2
			],
			"reel4": [
				3,
				2
			],
			"reel5": [
				4,
				2
			]
		},
		{
			"index": 3,
			"reel1": [
				0,
				3
			],
			"reel2": [
				1,
				3
			],
			"reel3": [
				2,
				3
			],
			"reel4": [
				3,
				3
			],
			"reel5": [
				4,
				3
			]
		},
		{
			"index": 4,
			"reel1": [
				0,
				0
			],
			"reel2": [
				1,
				0
			],
			"reel3": [
				2,
				0
			],
			"reel4": [
				3,
				1
			],
			"reel5": [
				4,
				2
			]
		},
		{
			"index": 5,
			"reel1": [
				0,
				3
			],
			"reel2": [
				1,
				3
			],
			"reel3": [
				2,
				3
			],
			"reel4": [
				3,
				2
			],
			"reel5": [
				4,
				1
			]
		},
		{
			"index": 6,
			"reel1": [
				0,
				1
			],
			"reel2": [
				1,
				1
			],
			"reel3": [
				2,
				1
			],
			"reel4": [
				3,
				2
			],
			"reel5": [
				4,
				3
			]
		},
		{
			"index": 7,
			"reel1": [
				0,
				2
			],
			"reel2": [
				1,
				2
			],
			"reel3": [
				2,
				2
			],
			"reel4": [
				3,
				1
			],
			"reel5": [
				4,
				0
			]
		},
		{
			"index": 8,
			"reel1": [
				0,
				0
			],
			"reel2": [
				1,
				1
			],
			"reel3": [
				2,
				2
			],
			"reel4": [
				3,
				2
			],
			"reel5": [
				4,
				2
			]
		},
		{
			"index": 9,
			"reel1": [
				0,
				3
			],
			"reel2": [
				1,
				2
			],
			"reel3": [
				2,
				1
			],
			"reel4": [
				3,
				1
			],
			"reel5": [
				4,
				1
			]
		},
		{
			"index": 10,
			"reel1": [
				0,
				2
			],
			"reel2": [
				1,
				1
			],
			"reel3": [
				2,
				0
			],
			"reel4": [
				3,
				0
			],
			"reel5": [
				4,
				0
			]
		},
		{
			"index": 11,
			"reel1": [
				0,
				1
			],
			"reel2": [
				1,
				2
			],
			"reel3": [
				2,
				3
			],
			"reel4": [
				3,
				3
			],
			"reel5": [
				4,
				3
			]
		},
		{
			"index": 12,
			"reel1": [
				0,
				0
			],
			"reel2": [
				1,
				1
			],
			"reel3": [
				2,
				2
			],
			"reel4": [
				3,
				1
			],
			"reel5": [
				4,
				0
			]
		},
		{
			"index": 13,
			"reel1": [
				0,
				3
			],
			"reel2": [
				1,
				2
			],
			"reel3": [
				2,
				1
			],
			"reel4": [
				3,
				2
			],
			"reel5": [
				4,
				3
			]
		},
		{
			"index": 14,
			"reel1": [
				0,
				2
			],
			"reel2": [
				1,
				1
			],
			"reel3": [
				2,
				0
			],
			"reel4": [
				3,
				1
			],
			"reel5": [
				4,
				2
			]
		},
		{
			"index": 15,
			"reel1": [
				0,
				1
			],
			"reel2": [
				1,
				2
			],
			"reel3": [
				2,
				3
			],
			"reel4": [
				3,
				2
			],
			"reel5": [
				4,
				1
			]
		},
		{
			"index": 16,
			"reel1": [
				0,
				0
			],
			"reel2": [
				1,
				1
			],
			"reel3": [
				2,
				2
			],
			"reel4": [
				3,
				3
			],
			"reel5": [
				4,
				3
			]
		},
		{
			"index": 17,
			"reel1": [
				0,
				3
			],
			"reel2": [
				1,
				2
			],
			"reel3": [
				2,
				1
			],
			"reel4": [
				3,
				0
			],
			"reel5": [
				4,
				0
			]
		},
		{
			"index": 18,
			"reel1": [
				0,
				3
			],
			"reel2": [
				1,
				3
			],
			"reel3": [
				2,
				2
			],
			"reel4": [
				3,
				1
			],
			"reel5": [
				4,
				0
			]
		},
		{
			"index": 19,
			"reel1": [
				0,
				0
			],
			"reel2": [
				1,
				0
			],
			"reel3": [
				2,
				1
			],
			"reel4": [
				3,
				2
			],
			"reel5": [
				4,
				3
			]
		},
		{
			"index": 20,
			"reel1": [
				0,
				1
			],
			"reel2": [
				1,
				0
			],
			"reel3": [
				2,
				1
			],
			"reel4": [
				3,
				2
			],
			"reel5": [
				4,
				3
			]
		},
		{
			"index": 21,
			"reel1": [
				0,
				2
			],
			"reel2": [
				1,
				3
			],
			"reel3": [
				2,
				2
			],
			"reel4": [
				3,
				1
			],
			"reel5": [
				4,
				0
			]
		},
		{
			"index": 22,
			"reel1": [
				0,
				3
			],
			"reel2": [
				1,
				2
			],
			"reel3": [
				2,
				1
			],
			"reel4": [
				3,
				0
			],
			"reel5": [
				4,
				1
			]
		},
		{
			"index": 23,
			"reel1": [
				0,
				0
			],
			"reel2": [
				1,
				1
			],
			"reel3": [
				2,
				2
			],
			"reel4": [
				3,
				3
			],
			"reel5": [
				4,
				2
			]
		},
		{
			"index": 24,
			"reel1": [
				0,
				0
			],
			"reel2": [
				1,
				0
			],
			"reel3": [
				2,
				1
			],
			"reel4": [
				3,
				2
			],
			"reel5": [
				4,
				2
			]
		},
		{
			"index": 25,
			"reel1": [
				0,
				3
			],
			"reel2": [
				1,
				3
			],
			"reel3": [
				2,
				2
			],
			"reel4": [
				3,
				1
			],
			"reel5": [
				4,
				1
			]
		},
		{
			"index": 26,
			"reel1": [
				0,
				1
			],
			"reel2": [
				1,
				1
			],
			"reel3": [
				2,
				2
			],
			"reel4": [
				3,
				3
			],
			"reel5": [
				4,
				3
			]
		},
		{
			"index": 27,
			"reel1": [
				0,
				2
			],
			"reel2": [
				1,
				2
			],
			"reel3": [
				2,
				1
			],
			"reel4": [
				3,
				0
			],
			"reel5": [
				4,
				0
			]
		},
		{
			"index": 28,
			"reel1": [
				0,
				1
			],
			"reel2": [
				1,
				2
			],
			"reel3": [
				2,
				1
			],
			"reel4": [
				3,
				0
			],
			"reel5": [
				4,
				1
			]
		},
		{
			"index": 29,
			"reel1": [
				0,
				2
			],
			"reel2": [
				1,
				1
			],
			"reel3": [
				2,
				2
			],
			"reel4": [
				3,
				3
			],
			"reel5": [
				4,
				2
			]
		},
		{
			"index": 30,
			"reel1": [
				0,
				1
			],
			"reel2": [
				1,
				0
			],
			"reel3": [
				2,
				1
			],
			"reel4": [
				3,
				2
			],
			"reel5": [
				4,
				1
			]
		},
		{
			"index": 31,
			"reel1": [
				0,
				2
			],
			"reel2": [
				1,
				3
			],
			"reel3": [
				2,
				2
			],
			"reel4": [
				3,
				1
			],
			"reel5": [
				4,
				2
			]
		},
		{
			"index": 32,
			"reel1": [
				0,
				0
			],
			"reel2": [
				1,
				1
			],
			"reel3": [
				2,
				1
			],
			"reel4": [
				3,
				1
			],
			"reel5": [
				4,
				0
			]
		},
		{
			"index": 33,
			"reel1": [
				0,
				3
			],
			"reel2": [
				1,
				2
			],
			"reel3": [
				2,
				2
			],
			"reel4": [
				3,
				2
			],
			"reel5": [
				4,
				3
			]
		},
		{
			"index": 34,
			"reel1": [
				0,
				1
			],
			"reel2": [
				1,
				0
			],
			"reel3": [
				2,
				0
			],
			"reel4": [
				3,
				0
			],
			"reel5": [
				4,
				1
			]
		},
		{
			"index": 35,
			"reel1": [
				0,
				2
			],
			"reel2": [
				1,
				3
			],
			"reel3": [
				2,
				3
			],
			"reel4": [
				3,
				3
			],
			"reel5": [
				4,
				2
			]
		},
		{
			"index": 36,
			"reel1": [
				0,
				1
			],
			"reel2": [
				1,
				2
			],
			"reel3": [
				2,
				2
			],
			"reel4": [
				3,
				2
			],
			"reel5": [
				4,
				1
			]
		},
		{
			"index": 37,
			"reel1": [
				0,
				2
			],
			"reel2": [
				1,
				1
			],
			"reel3": [
				2,
				1
			],
			"reel4": [
				3,
				1
			],
			"reel5": [
				4,
				2
			]
		},
		{
			"index": 38,
			"reel1": [
				0,
				1
			],
			"reel2": [
				1,
				2
			],
			"reel3": [
				2,
				1
			],
			"reel4": [
				3,
				2
			],
			"reel5": [
				4,
				1
			]
		},
		{
			"index": 39,
			"reel1": [
				0,
				2
			],
			"reel2": [
				1,
				1
			],
			"reel3": [
				2,
				2
			],
			"reel4": [
				3,
				1
			],
			"reel5": [
				4,
				2
			]
		}
	],
	"reelSets": [
		{
			"type": "real",
			"normal": "NormalReel",
			"free": "FreeReel",
			"normalClient": "NormalClientReel",
			"freeClient": "FreeClientReel"
		},
		{
			"type": "test1",
			"normal": "NormalClientReel",
			"free": "FreeClientReel",
			"normalClient": "NormalClientReel",
			"freeClient": "FreeClientReel"
		},
		{
			"type": "test2",
			"normal": "NormalClientReel",
			"free": "FreeClientReel",
			"normalClient": "NormalClientReel",
			"freeClient": "FreeClientReel"
		}
	],
	"reelList": [
		{
			"name": "NormalReel"
		},
		{
			"name": "FreeReel"
		},
		{
			"name": "NormalClientReel"
		},
		{
			"name": "FreeClientReel"
		}
	],
	"normalReel": {
		"Reel1": [
			"W1",
			"T1",
			"T1",
			"T1",
			"T1",
			"F1",
			"F1",
			"S2",
			"S2",
			"M",
			"M",
			"M",
			"M",
			"S4",
			"S4",
			"S4",
			"S4",
			"B1",
			"B1",
			"B1",
			"B1",
			"W2",
			"W2",
			"W2",
			"F1",
			"F1",
			"F1",
			"F1",
			"O1",
			"O1",
			"B1",
			"B1",
			"B1",
			"W2",
			"W2",
			"W2",
			"D1",
			"D1",
			"D1",
			"O1",
			"O1",
			"M",
			"M",
			"M",
			"O1",
			"O1",
			"S4",
			"T1",
			"T1",
			"S2",
			"S2",
			"S3",
			"S4",
			"T1",
			"T1",
			"F1",
			"F1",
			"S4",
			"S4",
			"M",
			"M",
			"S3",
			"S3",
			"S3",
			"S3",
			"S3",
			"D1",
			"D1",
			"W2",
			"W2",
			"W2",
			"T1",
			"T1",
			"T1",
			"T1",
			"O1",
			"O1",
			"O1",
			"M",
			"M",
			"S3",
			"S2",
			"S2",
			"S2",
			"S2",
			"M",
			"M",
			"F1",
			"D1",
			"O1",
			"O1",
			"O1",
			"F1",
			"S3",
			"S3",
			"S3",
			"D1",
			"D1"
		],
		"Reel2": [
			"W1",
			"W1",
			"F1",
			"F1",
			"F1",
			"S2",
			"S2",
			"S2",
			"S3",
			"B1",
			"W2",
			"W2",
			"W2",
			"D1",
			"D1",
			"O1",
			"O1",
			"O1",
			"B1",
			"B1",
			"W2",
			"W2",
			"W2",
			"O1",
			"O1",
			"T1",
			"T1",
			"T1",
			"B1",
			"B1",
			"W2",
			"W2",
			"W2",
			"W2",
			"D1",
			"D1",
			"S3",
			"S3",
			"S3",
			"S3",
			"S2",
			"S2",
			"S2",
			"S2",
			"M",
			"M",
			"F1",
			"F1",
			"S4",
			"T1",
			"T1",
			"T1",
			"T1",
			"F1",
			"F1",
			"S3",
			"M",
			"M",
			"M",
			"S4",
			"T1",
			"T1",
			"T1",
			"T1",
			"D1",
			"S3",
			"S3",
			"S3",
			"D1",
			"D1",
			"D1",
			"M",
			"M",
			"S4",
			"S4",
			"S4",
			"S4",
			"F1",
			"F1",
			"S3",
			"M",
			"M",
			"F1",
			"F1",
			"F1",
			"S4",
			"O1",
			"S2",
			"S2",
			"S3",
			"O1",
			"O1",
			"O1"
		],
		"Reel3": [
			"W1",
			"W1",
			"S3",
			"S3",
			"S3",
			"S3",
			"S4",
			"S4",
			"S2",
			"S2",
			"M",
			"M",
			"F1",
			"S4",
			"S4",
			"T1",
			"T1",
			"F1",
			"F1",
			"W1",
			"W1",
			"W1",
			"W1",
			"W1",
			"D1",
			"D1",
			"D1",
			"D1",
			"D1",
			"D1",
			"D1",
			"O1",
			"O1",
			"O1",
			"T1",
			"T1",
			"W2",
			"W2",
			"W2",
			"W2",
			"D1",
			"D1",
			"B1",
			"B1",
			"O1",
			"O1",
			"T1",
			"T1",
			"T1",
			"T1",
			"W2",
			"W2",
			"W2",
			"W2",
			"B1",
			"B1",
			"D1",
			"D1",
			"O1",
			"O1",
			"O1",
			"O1",
			"W2",
			"W2",
			"W2",
			"W2",
			"M",
			"M",
			"S2",
			"S2",
			"F1",
			"F1",
			"S2",
			"S2",
			"S2",
			"M",
			"M",
			"M",
			"F1",
			"F1",
			"S3",
			"S3",
			"S3",
			"S4",
			"S4",
			"S4",
			"O1",
			"M",
			"O1",
			"O1",
			"B1",
			"B1",
			"D1",
			"D1",
			"D1",
			"D1",
			"S2",
			"S2",
			"S2",
			"S2",
			"S2",
			"S3",
			"S3",
			"S3",
			"T1",
			"T1",
			"T1",
			"S3",
			"S3",
			"S3",
			"S3"
		],
		"Reel4": [
			"W1",
			"D1",
			"M",
			"M",
			"M",
			"S3",
			"S3",
			"S3",
			"S3",
			"S3",
			"D1",
			"D1",
			"D1",
			"D1",
			"W2",
			"W2",
			"W2",
			"S4",
			"S4",
			"S4",
			"S3",
			"S2",
			"S2",
			"M",
			"M",
			"M",
			"M",
			"W2",
			"W2",
			"B1",
			"B1",
			"O1",
			"O1",
			"O1",
			"F1",
			"F1",
			"F1",
			"S2",
			"S2",
			"M",
			"S4",
			"W2",
			"W2",
			"W2",
			"S3",
			"T1",
			"T1",
			"F1",
			"W1",
			"W1",
			"W1",
			"D1",
			"D1",
			"D1",
			"B1",
			"B1",
			"O1",
			"O1",
			"O1",
			"S2",
			"S2",
			"S2",
			"S4",
			"T1",
			"T1",
			"S3",
			"S2",
			"F1",
			"F1",
			"O1",
			"O1",
			"O1",
			"O1",
			"M",
			"W1",
			"F1",
			"F1",
			"S4",
			"S2",
			"S2",
			"O1",
			"O1",
			"O1",
			"D1",
			"D1",
			"D1",
			"T1",
			"T1"
		],
		"Reel5": [
			"W1",
			"W1",
			"W1",
			"S4",
			"T1",
			"T1",
			"F1",
			"F1",
			"F1",
			"D1",
			"D1",
			"D1",
			"B1",
			"W2",
			"W2",
			"W2",
			"W2",
			"W2",
			"S3",
			"S3",
			"S3",
			"S3",
			"O1",
			"O1",
			"O1",
			"F1",
			"S2",
			"M",
			"M",
			"T1",
			"O1",
			"O1",
			"T1",
			"M",
			"S3",
			"S4",
			"M",
			"M",
			"S3",
			"F1",
			"S2",
			"S4",
			"T1",
			"T1",
			"F1",
			"S2",
			"B1",
			"B1",
			"W2",
			"W2",
			"W2",
			"W2",
			"D1",
			"D1",
			"O1",
			"O1",
			"O1",
			"S4",
			"S4",
			"B1",
			"B1",
			"B1",
			"D1",
			"D1",
			"D1",
			"T1",
			"T1",
			"T1",
			"F1",
			"F1",
			"S2",
			"S2",
			"S3",
			"S4",
			"S2",
			"S2",
			"M",
			"M",
			"M"
		]
	},
	"freeReel": {
		"Reel1": [
			"W1",
			"M",
			"S2",
			"S4",
			"F1",
			"W2",
			"D1",
			"O1",
			"S2",
			"S4",
			"D1",
			"S3",
			"W2",
			"M",
			"T1",
			"D1",
			"F1",
			"M",
			"W1",
			"S3",
			"O1",
			"S2",
			"M",
			"W2",
			"S2",
			"T1",
			"F1",
			"O1",
			"T1",
			"S4",
			"S3",
			"W2",
			"T1",
			"S2",
			"F1",
			"M",
			"S3",
			"S4",
			"F1",
			"D1"
		],
		"Reel2": [
			"W1",
			"S4",
			"S3",
			"D1",
			"M",
			"T1",
			"O1",
			"W2",
			"D1",
			"S3",
			"T1",
			"O1",
			"F1",
			"S2",
			"M",
			"S4",
			"W2",
			"F1",
			"O1",
			"S3",
			"D1",
			"S3",
			"S4",
			"D1",
			"O1",
			"T1",
			"S2",
			"W2",
			"T1",
			"S2",
			"M",
			"S3",
			"D1",
			"O1",
			"T1",
			"W2",
			"S2",
			"S4",
			"M",
			"F1"
		],
		"Reel3": [
			"W1",
			"F1",
			"S2",
			"O1",
			"M",
			"S4",
			"W2",
			"D1",
			"S2",
			"S4",
			"T1",
			"O1",
			"W2",
			"D1",
			"S2",
			"M",
			"S3",
			"S4",
			"M",
			"S3",
			"W2",
			"D1",
			"O1",
			"S3",
			"S4",
			"O1",
			"T1",
			"F1",
			"D1",
			"T1",
			"F1",
			"M",
			"O1",
			"T1",
			"S2",
			"S3",
			"W2",
			"D1",
			"F1",
			"S2"
		],
		"Reel4": [
			"W1",
			"T1",
			"O1",
			"F1",
			"S2",
			"T1",
			"F1",
			"T1",
			"D1",
			"S4",
			"F1",
			"S3",
			"W2",
			"F1",
			"S2",
			"M",
			"S3",
			"M",
			"S3",
			"M",
			"S3",
			"S4",
			"D1",
			"O1",
			"D1",
			"S2",
			"M",
			"O1",
			"W2",
			"D1",
			"S4",
			"O1",
			"T1",
			"W2",
			"D1",
			"O1",
			"T1",
			"S3",
			"S2",
			"S4"
		],
		"Reel5": [
			"W1",
			"F1",
			"S2",
			"S4",
			"O1",
			"T1",
			"F1",
			"D1",
			"O1",
			"T1",
			"W2",
			"D1",
			"S4",
			"M",
			"S3",
			"S4",
			"W2",
			"T1",
			"M",
			"M",
			"S2",
			"W2",
			"S3",
			"F1",
			"S2",
			"T1",
			"S3",
			"W1",
			"F1",
			"S2",
			"D1",
			"M",
			"S3",
			"S2",
			"F1",
			"O1",
			"T1",
			"S4",
			"D1",
			"M"
		]
	},
	"normalClientReel": {
		"reel1": [
			"W1",
			"T1",
			"F1",
			"S2",
			"M",
			"S4",
			"B1",
			"W2",
			"F1",
			"O1",
			"B1",
			"W2",
			"D1",
			"O1",
			"M",
			"O1",
			"S4",
			"T1",
			"S2",
			"S3",
			"S4",
			"T1",
			"F1",
			"S4",
			"M",
			"S3",
			"D1",
			"W2",
			"T1",
			"O1",
			"M",
			"S3",
			"S2",
			"M",
			"F1",
			"D1",
			"O1",
			"F1",
			"S3",
			"D1"
		],
		"reel2": [
			"W1",
			"F1",
			"S2",
			"S3",
			"B1",
			"W2",
			"D1",
			"O1",
			"B1",
			"W2",
			"O1",
			"T1",
			"B1",
			"W2",
			"D1",
			"S3",
			"S2",
			"M",
			"F1",
			"S4",
			"T1",
			"F1",
			"S3",
			"M",
			"S4",
			"T1",
			"D1",
			"S3",
			"D1",
			"M",
			"S4",
			"F1",
			"S3",
			"M",
			"F1",
			"S4",
			"O1",
			"S2",
			"S3",
			"O1"
		],
		"reel3": [
			"W1",
			"S3",
			"S4",
			"S2",
			"M",
			"F1",
			"S4",
			"T1",
			"F1",
			"W1",
			"D1",
			"O1",
			"T1",
			"W2",
			"D1",
			"B1",
			"O1",
			"T1",
			"W2",
			"B1",
			"D1",
			"O1",
			"W2",
			"M",
			"S2",
			"F1",
			"S2",
			"M",
			"F1",
			"S3",
			"S4",
			"O1",
			"M",
			"O1",
			"B1",
			"D1",
			"S2",
			"S3",
			"T1",
			"S3"
		],
		"reel4": [
			"W1",
			"D1",
			"M",
			"S3",
			"D1",
			"W2",
			"S4",
			"S3",
			"S2",
			"M",
			"W2",
			"B1",
			"O1",
			"F1",
			"S2",
			"M",
			"S4",
			"W2",
			"S3",
			"T1",
			"F1",
			"W1",
			"D1",
			"B1",
			"O1",
			"S2",
			"S4",
			"T1",
			"S3",
			"S2",
			"F1",
			"O1",
			"M",
			"W1",
			"F1",
			"S4",
			"S2",
			"O1",
			"D1",
			"T1"
		],
		"reel5": [
			"W1",
			"S4",
			"T1",
			"F1",
			"D1",
			"B1",
			"W2",
			"S3",
			"O1",
			"F1",
			"S2",
			"M",
			"T1",
			"O1",
			"T1",
			"M",
			"S3",
			"S4",
			"M",
			"S3",
			"F1",
			"S2",
			"S4",
			"T1",
			"F1",
			"S2",
			"B1",
			"W2",
			"D1",
			"O1",
			"S4",
			"B1",
			"D1",
			"T1",
			"F1",
			"S2",
			"S3",
			"S4",
			"S2",
			"M"
		]
	},
	"freeClientReel": {
		"Reel1": [
			"W1",
			"M",
			"S2",
			"S4",
			"F1",
			"W2",
			"D1",
			"O1",
			"S2",
			"S4",
			"D1",
			"S3",
			"W2",
			"M",
			"T1",
			"D1",
			"F1",
			"M",
			"W1",
			"S3",
			"O1",
			"S2",
			"M",
			"W2",
			"S2",
			"T1",
			"F1",
			"O1",
			"T1",
			"S4",
			"S3",
			"W2",
			"T1",
			"S2",
			"F1",
			"M",
			"S3",
			"S4",
			"F1",
			"D1"
		],
		"Reel2": [
			"W1",
			"S4",
			"S3",
			"D1",
			"M",
			"T1",
			"O1",
			"W2",
			"D1",
			"S3",
			"T1",
			"O1",
			"F1",
			"S2",
			"M",
			"S4",
			"W2",
			"F1",
			"O1",
			"S3",
			"D1",
			"S3",
			"S4",
			"D1",
			"O1",
			"T1",
			"S2",
			"W2",
			"T1",
			"S2",
			"M",
			"S3",
			"D1",
			"O1",
			"T1",
			"W2",
			"S2",
			"S4",
			"M",
			"F1"
		],
		"Reel3": [
			"W1",
			"F1",
			"S2",
			"O1",
			"M",
			"S4",
			"W2",
			"D1",
			"S2",
			"S4",
			"T1",
			"O1",
			"W2",
			"D1",
			"S2",
			"M",
			"S3",
			"S4",
			"M",
			"S3",
			"W2",
			"D1",
			"O1",
			"S3",
			"S4",
			"O1",
			"T1",
			"F1",
			"D1",
			"T1",
			"F1",
			"M",
			"O1",
			"T1",
			"S2",
			"S3",
			"W2",
			"D1",
			"F1",
			"S2"
		],
		"Reel4": [
			"W1",
			"T1",
			"O1",
			"F1",
			"S2",
			"T1",
			"F1",
			"T1",
			"D1",
			"S4",
			"F1",
			"S3",
			"W2",
			"F1",
			"S2",
			"M",
			"S3",
			"M",
			"S3",
			"M",
			"S3",
			"S4",
			"D1",
			"O1",
			"D1",
			"S2",
			"M",
			"O1",
			"W2",
			"D1",
			"S4",
			"O1",
			"T1",
			"W2",
			"D1",
			"O1",
			"T1",
			"S3",
			"S2",
			"S4"
		],
		"Reel5": [
			"W1",
			"F1",
			"S2",
			"S4",
			"O1",
			"T1",
			"F1",
			"D1",
			"O1",
			"T1",
			"W2",
			"D1",
			"S4",
			"M",
			"S3",
			"S4",
			"W2",
			"T1",
			"M",
			"M",
			"S2",
			"W2",
			"S3",
			"F1",
			"S2",
			"T1",
			"S3",
			"W1",
			"F1",
			"S2",
			"D1",
			"M",
			"S3",
			"S2",
			"F1",
			"O1",
			"T1",
			"S4",
			"D1",
			"M"
		]
	}
}